{"content":[{"mgiGeneAccessionId":"MGI:1922702","statisticalResultId":"ae2aac8062c64dd84901aea83e2f6472","pipelineStableId":"BCM_001","procedureStableId":"IMPC_VIA_002","procedureName":"Viability Primary Screen","procedureMinAnimals":-2,"procedureMinFemales":-2,"procedureMinMales":-2,"parameterStableId":"IMPC_VIA_064_001","parameterName":"Homozygous females viability","alleleAccessionId":"MGI:5008937","alleleName":"targeted mutation 1a, Wellcome Trust Sanger Institute","alleleSymbol":"Ascc2<tm1a(EUCOMM)Wtsi>","metadataGroup":"d41d8cd98f00b204e9800998ecf8427e","zygosity":"homozygote","phenotypingCentre":"BCM","phenotypeSexes":["female"],"projectName":"BaSH","maleMutantCount":null,"femaleMutantCount":null,"lifeStageName":"Early adult","pValue":"0.0","effectSize":"1.0","significant":true,"displayPhenotype":{"id":"MP:0010770","name":"preweaning lethality"},"statisticalMethod":"Supplied as data","status":"Successful","significantPhenotype":{"id":"MP:0011100","name":"preweaning lethality, complete penetrance"},"intermediatePhenotypes":[{"id":"MP:0010769","name":"abnormal survival"},{"id":"MP:0010770","name":"preweaning lethality"}],"topLevelPhenotypes":[{"id":"MP:0010768","name":"mortality/aging"}],"potentialPhenotypes":[{"id":"MP:0011100","name":"preweaning lethality, complete penetrance"}],"dataType":"line"},{"mgiGeneAccessionId":"MGI:1922702","statisticalResultId":"ccc458f919cf70b874362e862f4b30db","pipelineStableId":"BCM_001","procedureStableId":"IMPC_VIA_002","procedureName":"Viability Primary Screen","procedureMinAnimals":-2,"procedureMinFemales":-2,"procedureMinMales":-2,"parameterStableId":"IMPC_VIA_064_001","parameterName":"Homozygous females viability","alleleAccessionId":"MGI:5548657","alleleName":"targeted mutation 1b, Wellcome Trust Sanger Institute","alleleSymbol":"Ascc2<tm1b(EUCOMM)Wtsi>","metadataGroup":"d41d8cd98f00b204e9800998ecf8427e","zygosity":"homozygote","phenotypingCentre":"BCM","phenotypeSexes":["female"],"projectName":"BaSH","maleMutantCount":null,"femaleMutantCount":null,"lifeStageName":"Early adult","pValue":"0.0","effectSize":"1.0","significant":true,"displayPhenotype":{"id":"MP:0010770","name":"preweaning lethality"},"statisticalMethod":"Supplied as data","status":"Successful","significantPhenotype":{"id":"MP:0011100","name":"preweaning lethality, complete penetrance"},"intermediatePhenotypes":[{"id":"MP:0010769","name":"abnormal survival"},{"id":"MP:0010770","name":"preweaning lethality"}],"topLevelPhenotypes":[{"id":"MP:0010768","name":"mortality/aging"}],"potentialPhenotypes":[{"id":"MP:0011100","name":"preweaning lethality, complete penetrance"}],"dataType":"line"},{"mgiGeneAccessionId":"MGI:1922702","statisticalResultId":"0d895b1e61ee2ac63fead7e8095bb25e","pipelineStableId":"BCM_001","procedureStableId":"IMPC_PAT_002","procedureName":"Gross Pathology and Tissue Collection","procedureMinAnimals":null,"procedureMinFemales":2,"procedureMinMales":2,"parameterStableId":"IMPC_PAT_016_002","parameterName":"Spleen","alleleAccessionId":"MGI:5008937","alleleName":"targeted mutation 1a, Wellcome Trust Sanger Institute","alleleSymbol":"Ascc2<tm1a(EUCOMM)Wtsi>","metadataGroup":"d41d8cd98f00b204e9800998ecf8427e","zygosity":"heterozygote","phenotypingCentre":"BCM","phenotypeSexes":["female"],"projectName":"BaSH","maleMutantCount":null,"femaleMutantCount":null,"lifeStageName":"Early adult","pValue":"0.0","effectSize":"1.0","significant":true,"displayPhenotype":null,"statisticalMethod":"Supplied as data","status":"Successful","significantPhenotype":{"id":"MP:0000691","name":"enlarged spleen"},"intermediatePhenotypes":[{"id":"MP:0000689","name":"abnormal spleen morphology"},{"id":"MP:0013328","name":"visceromegaly"},{"id":"MP:0002224","name":"abnormal spleen size"},{"id":"MP:0002396","name":"abnormal hematopoietic system morphology/development"},{"id":"MP:0000685","name":"abnormal immune system morphology"},{"id":"MP:0031094","name":"organomegaly"},{"id":"MP:0002722","name":"abnormal immune system organ morphology"},{"id":"MP:0002221","name":"abnormal lymph organ size"}],"topLevelPhenotypes":[{"id":"MP:0005387","name":"immune system phenotype"},{"id":"MP:0005378","name":"growth/size/body region phenotype"},{"id":"MP:0005397","name":"hematopoietic system phenotype"}],"potentialPhenotypes":[{"id":"MP:0000691","name":"enlarged spleen"}],"dataType":"adult-gross-path"},{"mgiGeneAccessionId":"MGI:1922702","statisticalResultId":"878451b233b485e6c312b3527ec7f9e5","pipelineStableId":"BCM_001","procedureStableId":"IMPC_HIS_003","procedureName":"Histopathology","procedureMinAnimals":null,"procedureMinFemales":2,"procedureMinMales":2,"parameterStableId":"IMPC_HIS_033_002","parameterName":"Heart - MPATH pathological process term","alleleAccessionId":"MGI:5548657","alleleName":"targeted mutation 1b, Wellcome Trust Sanger Institute","alleleSymbol":"Ascc2<tm1b(EUCOMM)Wtsi>","metadataGroup":"d41d8cd98f00b204e9800998ecf8427e","zygosity":"heterozygote","phenotypingCentre":"BCM","phenotypeSexes":["male"],"projectName":"BaSH","maleMutantCount":null,"femaleMutantCount":null,"lifeStageName":"Early adult","pValue":"0.0","effectSize":"1.0","significant":true,"displayPhenotype":null,"statisticalMethod":"Supplied as data","status":"Successful","significantPhenotype":null,"intermediatePhenotypes":[{"id":"MPATH:596","name":"pathological process"},{"id":"MPATH:1000","name":"pathological phenotype observation"},{"id":"MPATH:604","name":"defective growth and differentiation process"},{"id":"MPATH:0","name":"pathological entity"}],"topLevelPhenotypes":[],"potentialPhenotypes":[],"dataType":"histopathology"},{"mgiGeneAccessionId":"MGI:1922702","statisticalResultId":"de96b74593883eb3719acf6b7d2fcd77","pipelineStableId":"BCM_001","procedureStableId":"IMPC_VIA_002","procedureName":"Viability Primary Screen","procedureMinAnimals":-2,"procedureMinFemales":-2,"procedureMinMales":-2,"parameterStableId":"IMPC_VIA_063_001","parameterName":"Homozygous males viability","alleleAccessionId":"MGI:5548657","alleleName":"targeted mutation 1b, Wellcome Trust Sanger Institute","alleleSymbol":"Ascc2<tm1b(EUCOMM)Wtsi>","metadataGroup":"d41d8cd98f00b204e9800998ecf8427e","zygosity":"homozygote","phenotypingCentre":"BCM","phenotypeSexes":["male"],"projectName":"BaSH","maleMutantCount":null,"femaleMutantCount":null,"lifeStageName":"Early adult","pValue":"0.0","effectSize":"1.0","significant":true,"displayPhenotype":{"id":"MP:0010770","name":"preweaning lethality"},"statisticalMethod":"Supplied as data","status":"Successful","significantPhenotype":{"id":"MP:0011100","name":"preweaning lethality, complete penetrance"},"intermediatePhenotypes":[{"id":"MP:0010769","name":"abnormal survival"},{"id":"MP:0010770","name":"preweaning lethality"}],"topLevelPhenotypes":[{"id":"MP:0010768","name":"mortality/aging"}],"potentialPhenotypes":[{"id":"MP:0011100","name":"preweaning lethality, complete penetrance"}],"dataType":"line"},{"mgiGeneAccessionId":"MGI:1922702","statisticalResultId":"535345928c75f1c4c304150534f7274f","pipelineStableId":"BCM_001","procedureStableId":"IMPC_VIA_002","procedureName":"Viability Primary Screen","procedureMinAnimals":-2,"procedureMinFemales":-2,"procedureMinMales":-2,"parameterStableId":"IMPC_VIA_067_001","parameterName":"Homozygous animals viability","alleleAccessionId":"MGI:5008937","alleleName":"targeted mutation 1a, Wellcome Trust Sanger Institute","alleleSymbol":"Ascc2<tm1a(EUCOMM)Wtsi>","metadataGroup":"d41d8cd98f00b204e9800998ecf8427e","zygosity":"homozygote","phenotypingCentre":"BCM","phenotypeSexes":["male","female"],"projectName":"BaSH","maleMutantCount":null,"femaleMutantCount":null,"lifeStageName":"Early adult","pValue":"0.0","effectSize":"1.0","significant":true,"displayPhenotype":{"id":"MP:0010770","name":"preweaning lethality"},"statisticalMethod":"Supplied as data","status":"Successful","significantPhenotype":{"id":"MP:0011100","name":"preweaning lethality, complete penetrance"},"intermediatePhenotypes":[{"id":"MP:0010769","name":"abnormal survival"},{"id":"MP:0010770","name":"preweaning lethality"}],"topLevelPhenotypes":[{"id":"MP:0010768","name":"mortality/aging"}],"potentialPhenotypes":[{"id":"MP:0011100","name":"preweaning lethality, complete penetrance"}],"dataType":"line"},{"mgiGeneAccessionId":"MGI:1922702","statisticalResultId":"0e7230c21b401c1f545c7ed514f95ec9","pipelineStableId":"BCM_001","procedureStableId":"IMPC_VIA_002","procedureName":"Viability Primary Screen","procedureMinAnimals":-2,"procedureMinFemales":-2,"procedureMinMales":-2,"parameterStableId":"IMPC_VIA_063_001","parameterName":"Homozygous males viability","alleleAccessionId":"MGI:5008937","alleleName":"targeted mutation 1a, Wellcome Trust Sanger Institute","alleleSymbol":"Ascc2<tm1a(EUCOMM)Wtsi>","metadataGroup":"d41d8cd98f00b204e9800998ecf8427e","zygosity":"homozygote","phenotypingCentre":"BCM","phenotypeSexes":["male"],"projectName":"BaSH","maleMutantCount":null,"femaleMutantCount":null,"lifeStageName":"Early adult","pValue":"0.0","effectSize":"1.0","significant":true,"displayPhenotype":{"id":"MP:0010770","name":"preweaning lethality"},"statisticalMethod":"Supplied as data","status":"Successful","significantPhenotype":{"id":"MP:0011100","name":"preweaning lethality, complete penetrance"},"intermediatePhenotypes":[{"id":"MP:0010769","name":"abnormal survival"},{"id":"MP:0010770","name":"preweaning lethality"}],"topLevelPhenotypes":[{"id":"MP:0010768","name":"mortality/aging"}],"potentialPhenotypes":[{"id":"MP:0011100","name":"preweaning lethality, complete penetrance"}],"dataType":"line"},{"mgiGeneAccessionId":"MGI:1922702","statisticalResultId":"57f191e24a3f383fcdcd19b662a66e30","pipelineStableId":"BCM_001","procedureStableId":"IMPC_EVL_001","procedureName":"Viability E9.5 Secondary Screen","procedureMinAnimals":-2,"procedureMinFemales":-2,"procedureMinMales":-2,"parameterStableId":"IMPC_EVL_001_001","parameterName":"Outcome","alleleAccessionId":"MGI:5548657","alleleName":"targeted mutation 1b, Wellcome Trust Sanger Institute","alleleSymbol":"Ascc2<tm1b(EUCOMM)Wtsi>","metadataGroup":"d41d8cd98f00b204e9800998ecf8427e","zygosity":"homozygote","phenotypingCentre":"BCM","phenotypeSexes":["male","female"],"projectName":"BaSH","maleMutantCount":null,"femaleMutantCount":null,"lifeStageName":"E9.5","pValue":"0.0","effectSize":"1.0","significant":true,"displayPhenotype":{"id":"MP:0013292","name":"embryonic lethality prior to organogenesis"},"statisticalMethod":"Supplied as data","status":"Successful","significantPhenotype":{"id":"MP:0013292","name":"embryonic lethality prior to organogenesis"},"intermediatePhenotypes":[{"id":"MP:0010769","name":"abnormal survival"},{"id":"MP:0002080","name":"prenatal lethality"},{"id":"MP:0010770","name":"preweaning lethality"},{"id":"MP:0008762","name":"embryonic lethality"},{"id":"MP:0013293","name":"embryonic lethality prior to tooth bud stage"}],"topLevelPhenotypes":[{"id":"MP:0010768","name":"mortality/aging"}],"potentialPhenotypes":[{"id":"MP:0013292","name":"embryonic lethality prior to organogenesis"}],"dataType":"embryo"},{"mgiGeneAccessionId":"MGI:1922702","statisticalResultId":"ed678c4a9df9a6e0dd3df1a6b3f3cd53","pipelineStableId":"BCM_001","procedureStableId":"IMPC_VIA_002","procedureName":"Viability Primary Screen","procedureMinAnimals":-2,"procedureMinFemales":-2,"procedureMinMales":-2,"parameterStableId":"IMPC_VIA_067_001","parameterName":"Homozygous animals viability","alleleAccessionId":"MGI:5548657","alleleName":"targeted mutation 1b, Wellcome Trust Sanger Institute","alleleSymbol":"Ascc2<tm1b(EUCOMM)Wtsi>","metadataGroup":"d41d8cd98f00b204e9800998ecf8427e","zygosity":"homozygote","phenotypingCentre":"BCM","phenotypeSexes":["male","female"],"projectName":"BaSH","maleMutantCount":null,"femaleMutantCount":null,"lifeStageName":"Early adult","pValue":"0.0","effectSize":"1.0","significant":true,"displayPhenotype":{"id":"MP:0010770","name":"preweaning lethality"},"statisticalMethod":"Supplied as data","status":"Successful","significantPhenotype":{"id":"MP:0011100","name":"preweaning lethality, complete penetrance"},"intermediatePhenotypes":[{"id":"MP:0010769","name":"abnormal survival"},{"id":"MP:0010770","name":"preweaning lethality"}],"topLevelPhenotypes":[{"id":"MP:0010768","name":"mortality/aging"}],"potentialPhenotypes":[{"id":"MP:0011100","name":"preweaning lethality, complete penetrance"}],"dataType":"line"},{"mgiGeneAccessionId":"MGI:1922702","statisticalResultId":"93846a5d236eabee352d995a5303ac6e","pipelineStableId":"BCM_001","procedureStableId":"IMPC_CBC_003","procedureName":"Clinical Chemistry","procedureMinAnimals":null,"procedureMinFemales":7,"procedureMinMales":7,"parameterStableId":"IMPC_CBC_004_001","parameterName":"Urea (Blood Urea Nitrogen - BUN)","alleleAccessionId":"MGI:5008937","alleleName":"targeted mutation 1a, Wellcome Trust Sanger Institute","alleleSymbol":"Ascc2<tm1a(EUCOMM)Wtsi>","metadataGroup":"28d8ab8f137e53e144a799a47811bb43","zygosity":"heterozygote","phenotypingCentre":"BCM","phenotypeSexes":["female"],"projectName":"BaSH","maleMutantCount":3,"femaleMutantCount":5,"lifeStageName":"Early adult","pValue":"0.00745083961026516","effectSize":"-1.63635821812969","significant":false,"displayPhenotype":{"id":"MP:0005265","name":"abnormal blood urea nitrogen level"},"statisticalMethod":"Linear Mixed Model framework, LME, not including Weight","status":"Successful","significantPhenotype":null,"intermediatePhenotypes":[{"id":"MP:0009644","name":"abnormal homeostasis"},{"id":"MP:0005265","name":"uremia"},{"id":"MP:0001764","name":"abnormal blood homeostasis"},{"id":"MP:0009642","name":"abnormal blood urea nitrogen level"}],"topLevelPhenotypes":[{"id":"MP:0005376","name":"homeostasis/metabolism phenotype"}],"potentialPhenotypes":[{"id":"MP:0005265","name":"abnormal blood urea nitrogen level"},{"id":"MP:0005565","name":"increased blood urea nitrogen level"},{"id":"MP:0005566","name":"decreased blood urea nitrogen level"}],"dataType":"unidimensional"}],"pageable":{"pageNumber":0,"pageSize":10,"sort":{"unsorted":true,"sorted":false,"empty":true},"offset":0,"unpaged":false,"paged":true},"totalPages":80,"totalElements":795,"last":false,"numberOfElements":10,"first":true,"size":10,"number":0,"sort":{"unsorted":true,"sorted":false,"empty":true},"empty":false}